<?xml version="1.0" encoding="UTF-8" ?>
<!DOCTYPE svg PUBLIC "-//W3C//DTD SVG 1.1//EN" "http://www.w3.org/Graphics/SVG/1.1/DTD/svg11.dtd">
<svg width="736pt" height="736pt" viewBox="0 0 736 736" version="1.1" xmlns="http://www.w3.org/2000/svg">
<g id="#ffffffff">
</g>
<g id="#fe6601ff">
<path fill="#fe6601" opacity="1.00" d=" M 390.82 55.88 C 405.42 50.91 420.65 47.80 436.02 46.62 C 444.70 46.29 453.38 46.41 462.06 46.49 C 483.95 47.38 505.28 54.15 524.65 64.18 C 543.40 73.41 560.05 86.48 574.61 101.39 C 587.59 114.58 599.77 128.65 609.82 144.23 C 615.86 153.39 622.27 162.47 626.58 172.62 C 620.41 167.72 615.95 161.13 610.48 155.53 C 603.46 148.24 596.35 140.99 588.75 134.31 C 577.46 125.21 565.69 116.53 552.65 110.11 C 539.09 103.10 524.14 98.58 508.85 97.86 C 489.30 97.33 470.13 104.82 454.86 116.78 C 444.00 123.90 431.97 129.46 422.41 138.42 C 415.94 144.61 408.83 150.23 403.52 157.51 C 399.14 163.53 394.43 169.54 392.28 176.78 C 398.21 174.28 403.26 170.23 408.58 166.70 C 417.73 160.42 427.96 156.03 437.90 151.18 C 450.91 145.39 464.84 141.63 478.97 139.87 C 493.67 138.63 508.61 139.15 522.99 142.61 C 545.53 147.15 566.51 159.01 581.95 176.05 C 589.92 184.97 597.75 194.27 602.67 205.29 C 609.30 220.16 616.56 235.41 617.33 251.95 C 617.15 261.32 618.64 270.62 618.38 280.00 C 618.56 297.21 618.18 314.60 614.29 331.45 C 613.60 334.83 611.87 337.86 609.78 340.56 C 606.42 328.29 603.92 315.78 600.07 303.64 C 590.32 274.25 575.95 245.36 552.60 224.39 C 547.95 220.17 542.88 216.03 536.71 214.33 C 525.09 211.13 513.10 208.92 501.00 209.31 C 487.64 208.93 473.79 211.84 462.74 219.64 C 457.96 223.09 454.07 227.61 450.79 232.47 C 458.51 234.93 466.72 235.21 474.47 237.55 C 492.66 242.77 509.97 252.13 523.09 265.91 C 533.46 276.01 540.84 288.75 546.86 301.80 C 551.94 314.57 556.70 328.04 555.81 342.00 C 556.16 361.62 552.72 381.11 547.32 399.92 C 546.36 403.22 545.04 406.40 543.53 409.49 C 541.69 403.35 542.71 396.90 541.88 390.64 C 540.46 378.66 538.86 366.49 533.95 355.35 C 528.47 341.69 519.29 328.69 505.76 322.10 C 498.76 318.38 490.82 316.88 482.97 316.40 C 465.31 315.00 447.29 312.41 429.76 316.33 C 426.07 317.04 422.68 318.77 419.64 320.95 C 425.47 322.68 431.49 323.65 437.28 325.51 C 451.86 330.40 465.45 338.76 475.43 350.58 C 483.84 359.68 488.91 371.33 491.70 383.29 C 492.98 388.76 494.01 394.37 493.42 400.02 C 492.29 409.77 492.81 419.69 490.74 429.34 C 488.54 439.80 486.19 450.32 482.09 460.23 C 477.20 471.69 471.35 482.80 464.06 492.93 C 466.28 484.06 469.20 475.36 470.91 466.36 C 474.13 445.08 472.44 422.24 461.75 403.16 C 456.99 394.01 449.61 386.68 443.57 378.42 C 437.07 370.07 428.07 363.10 417.58 360.84 C 409.33 359.72 400.69 360.04 392.86 363.08 C 385.75 365.83 378.88 369.30 372.75 373.85 C 365.63 379.27 359.08 385.38 352.20 391.10 C 344.39 397.45 339.12 406.19 333.62 414.48 C 328.16 422.61 324.57 431.82 319.10 439.95 C 309.23 453.81 296.28 465.97 280.50 472.73 C 270.11 477.33 257.95 477.95 247.22 474.14 C 232.25 469.30 221.17 457.23 211.61 445.31 C 201.29 432.88 193.90 418.11 189.88 402.48 C 187.79 394.48 188.20 386.13 188.35 377.95 C 188.51 370.65 191.49 363.85 192.80 356.75 C 196.87 334.34 193.80 311.06 186.01 289.78 C 182.62 281.35 178.03 273.45 173.09 265.85 C 170.55 261.86 167.15 258.38 162.95 256.15 C 156.14 252.40 148.79 249.64 141.27 247.74 C 132.11 245.31 122.27 247.43 114.11 251.94 C 110.73 253.81 107.23 256.82 107.34 261.04 C 106.79 267.44 111.85 272.10 114.82 277.19 C 124.18 293.10 130.04 311.47 129.35 330.05 C 128.92 340.45 125.04 350.22 120.57 359.48 C 116.72 369.75 108.72 377.54 101.51 385.50 C 96.19 391.22 89.98 396.10 85.25 402.35 C 68.11 426.19 55.88 454.35 54.40 483.95 C 54.29 495.19 53.84 506.54 55.83 517.66 C 59.09 537.98 67.00 557.29 76.85 575.25 C 81.18 583.51 87.43 590.50 93.21 597.75 C 104.79 612.40 117.24 626.36 130.49 639.52 C 141.75 651.28 154.31 661.68 166.10 672.89 C 171.22 677.81 177.35 681.67 181.79 687.30 C 172.77 685.31 164.71 680.65 156.47 676.69 C 142.12 669.29 127.70 661.88 114.48 652.57 C 87.61 635.17 63.93 612.67 46.03 586.08 C 32.95 564.36 23.66 539.61 23.57 513.99 C 22.90 492.03 28.40 470.35 36.27 449.99 C 41.77 437.34 48.65 425.32 55.50 413.35 C 58.97 407.36 63.47 402.05 67.16 396.20 C 57.41 388.63 47.00 381.33 40.24 370.76 C 35.89 363.81 33.25 355.05 35.97 347.01 C 37.99 339.30 44.47 334.13 48.24 327.37 C 52.38 320.12 57.83 313.28 65.31 309.29 C 70.44 306.45 77.05 306.73 81.37 302.39 C 87.12 296.72 92.16 289.32 92.28 280.97 C 91.54 273.29 84.82 268.06 78.67 264.36 C 69.27 259.42 58.71 255.16 47.88 256.75 C 52.79 246.87 62.26 239.29 73.28 237.59 C 80.99 235.75 88.81 237.66 96.53 238.40 C 90.51 230.24 83.70 222.44 80.09 212.82 C 76.30 203.40 75.75 191.65 82.09 183.20 C 86.05 178.17 91.70 174.69 97.52 172.20 C 100.68 170.87 105.53 170.38 107.07 174.28 C 108.79 179.65 106.65 185.25 106.82 190.71 C 107.44 194.44 109.87 197.50 111.80 200.65 C 112.72 200.61 114.55 200.55 115.47 200.52 C 116.68 194.13 115.87 187.10 119.47 181.36 C 123.46 174.67 128.34 167.49 135.97 164.72 C 141.99 163.75 148.25 164.35 154.19 165.59 C 158.40 166.36 161.88 169.83 162.32 174.14 C 162.64 180.90 157.60 186.83 158.57 193.65 C 159.61 198.81 164.98 201.93 169.93 202.29 C 175.85 202.62 181.80 201.64 187.52 200.17 C 192.14 199.02 196.22 196.18 200.97 195.55 C 205.07 195.60 209.30 196.88 212.54 199.42 C 215.02 201.27 215.03 204.93 213.33 207.31 C 208.60 214.56 200.74 218.75 194.44 224.42 C 191.65 226.74 192.44 230.66 192.22 233.86 C 199.32 236.39 207.61 235.88 214.08 231.93 C 218.85 227.78 222.94 222.73 228.63 219.75 C 232.13 217.66 236.44 216.63 240.44 217.71 C 243.70 219.50 243.47 223.77 243.88 226.97 C 244.41 236.16 245.80 245.62 243.33 254.66 C 241.78 260.24 239.13 265.44 236.21 270.42 C 232.03 277.57 225.92 283.29 220.02 289.00 C 215.89 293.00 210.93 295.95 206.46 299.52 C 201.40 303.31 202.09 310.35 201.12 315.92 C 199.41 335.66 199.71 356.45 208.00 374.82 C 211.40 382.92 216.03 390.51 221.87 397.08 C 229.26 405.15 237.74 412.58 247.99 416.75 C 256.19 420.08 264.77 423.66 273.78 423.35 C 281.57 422.61 290.01 420.53 295.31 414.35 C 300.27 408.07 302.94 400.02 302.76 392.02 C 303.19 379.44 300.45 367.01 296.78 355.05 C 294.52 347.64 290.27 341.09 287.22 334.02 C 282.75 323.67 278.54 313.17 275.49 302.31 C 272.84 292.79 269.47 283.46 267.60 273.73 C 264.36 257.37 262.14 240.71 262.42 224.00 C 261.76 192.83 269.07 161.15 285.26 134.35 C 293.19 121.02 302.34 108.31 313.47 97.47 C 319.28 91.69 326.51 87.70 333.34 83.28 C 344.10 76.34 355.48 70.39 367.18 65.21 C 374.83 61.54 382.66 58.25 390.82 55.88 Z" />
<path fill="#fe6601" opacity="1.00" d=" M 481.41 503.20 C 486.60 500.21 493.46 505.18 492.67 510.99 C 492.94 516.47 486.25 520.28 481.62 517.50 C 476.31 514.78 476.02 505.96 481.41 503.20 Z" />
<path fill="#fe6601" opacity="1.00" d=" M 556.32 503.03 C 560.42 501.14 566.00 503.73 566.93 508.22 C 567.91 512.09 565.97 517.04 561.80 518.02 C 557.81 519.45 553.13 516.85 552.08 512.79 C 550.80 509.03 552.70 504.64 556.32 503.03 Z" />
<path fill="#fe6601" opacity="1.00" d=" M 460.46 503.75 C 464.48 503.61 468.51 503.57 472.54 503.58 C 472.73 526.26 472.74 548.94 472.56 571.62 C 468.50 571.70 464.44 571.69 460.38 571.65 C 460.67 549.02 460.45 526.38 460.46 503.75 Z" />
<path fill="#fe6601" opacity="1.00" d=" M 517.42 521.79 C 523.73 520.93 530.46 520.88 536.36 523.57 C 540.55 525.32 543.80 528.61 546.73 531.98 C 543.65 533.96 540.73 536.54 537.09 537.37 C 533.36 535.97 530.13 533.17 526.03 532.82 C 520.73 532.46 514.76 534.10 511.56 538.62 C 508.81 542.35 508.84 547.33 509.50 551.72 C 511.11 557.96 517.77 561.91 524.01 561.65 C 528.93 561.75 533.18 558.95 537.07 556.27 C 540.21 558.36 543.29 560.56 546.26 562.91 C 535.42 577.20 510.06 577.12 500.37 561.63 C 496.14 555.58 495.38 547.78 496.92 540.71 C 499.37 531.20 507.75 523.47 517.42 521.79 Z" />
<path fill="#fe6601" opacity="1.00" d=" M 678.36 535.97 C 677.80 529.31 683.11 523.30 689.35 521.73 C 692.91 521.01 696.64 521.13 700.17 521.98 C 704.42 522.99 707.52 526.27 710.64 529.08 C 708.27 531.79 705.82 534.42 703.31 537.00 C 700.66 535.40 698.07 533.48 695.01 532.79 C 692.58 532.57 691.31 535.16 689.77 536.59 C 695.72 540.57 702.85 542.90 707.89 548.14 C 712.83 553.16 713.02 562.02 708.22 567.19 C 703.30 573.19 694.57 574.41 687.42 572.47 C 682.96 571.34 679.56 568.06 676.33 564.99 C 678.73 562.21 681.22 559.51 683.79 556.89 C 687.63 559.32 691.79 562.59 696.65 561.63 C 698.52 561.52 699.58 559.68 699.73 558.00 C 696.80 553.07 690.89 551.54 686.43 548.45 C 682.06 545.80 678.23 541.34 678.36 535.97 Z" />
<path fill="#fe6601" opacity="1.00" d=" M 478.69 522.59 C 482.94 522.53 487.18 522.50 491.44 522.50 C 491.37 538.89 491.33 555.28 491.48 571.67 C 487.19 571.71 482.90 571.73 478.61 571.68 C 478.82 555.32 478.66 538.95 478.69 522.59 Z" />
<path fill="#fe6601" opacity="1.00" d=" M 553.46 522.51 C 557.48 522.52 561.50 522.52 565.53 522.51 C 565.69 538.91 565.56 555.32 565.62 571.72 C 561.53 571.71 557.45 571.72 553.37 571.73 C 553.49 555.32 553.31 538.91 553.46 522.51 Z" />
<path fill="#fe6601" opacity="1.00" d=" M 589.36 522.13 C 594.06 520.98 599.07 521.04 603.75 522.23 C 613.24 524.73 620.69 533.32 622.06 543.00 C 623.38 551.19 620.78 559.99 614.89 565.89 C 605.96 574.49 590.62 576.02 580.72 568.19 C 569.55 560.30 567.24 543.10 575.13 532.13 C 578.51 527.27 583.63 523.64 589.36 522.13 M 592.36 533.58 C 583.42 536.07 581.27 547.64 584.96 555.14 C 588.31 561.92 598.27 563.69 604.06 559.04 C 611.95 553.52 611.66 539.71 603.33 534.75 C 600.06 532.80 595.98 532.97 592.36 533.58 Z" />
<path fill="#fe6601" opacity="1.00" d=" M 628.50 522.48 C 632.78 522.52 637.07 522.53 641.35 522.51 C 641.26 530.67 641.29 538.83 641.27 546.99 C 641.39 550.88 641.23 555.16 643.50 558.53 C 647.77 564.04 658.54 561.95 659.23 554.55 C 660.31 543.91 659.24 533.17 659.97 522.50 C 663.97 522.53 667.98 522.52 671.98 522.46 C 672.42 530.98 672.31 539.51 672.25 548.03 C 672.04 554.76 671.32 562.25 666.30 567.29 C 661.26 572.84 653.12 574.06 646.02 572.96 C 641.99 572.42 637.90 571.02 635.05 567.99 C 630.39 563.29 628.85 556.44 628.62 550.03 C 628.42 540.85 628.69 531.66 628.50 522.48 Z" />
</g>
<g id="#666666ff">
<path fill="#666666" opacity="1.00" d=" M 232.54 502.58 C 237.35 500.96 242.77 504.86 242.52 510.00 C 243.17 515.43 237.37 520.05 232.24 517.97 C 225.42 515.83 225.53 504.36 232.54 502.58 Z" />
<path fill="#666666" opacity="1.00" d=" M 304.35 503.43 C 308.42 503.52 312.49 503.54 316.56 503.54 C 316.83 516.29 316.29 529.05 316.87 541.80 C 322.17 537.10 326.51 531.49 331.25 526.27 C 332.84 524.67 334.50 522.65 336.96 522.64 C 341.20 522.27 345.46 522.57 349.70 522.78 C 343.46 530.94 335.98 538.03 329.49 545.99 C 337.13 554.60 345.19 562.83 352.78 571.48 C 348.23 571.83 343.63 572.23 339.08 571.74 C 337.32 571.60 336.06 570.25 334.86 569.13 C 328.75 562.93 323.44 555.97 316.89 550.21 C 316.47 557.41 316.61 564.62 316.67 571.83 C 312.55 571.84 308.43 571.84 304.31 571.83 C 304.41 549.03 304.35 526.23 304.35 503.43 Z" />
<path fill="#666666" opacity="1.00" d=" M 177.67 503.63 C 181.73 503.59 185.80 503.59 189.87 503.67 C 189.87 511.40 189.87 519.14 189.86 526.87 C 194.71 523.81 200.03 520.62 206.00 521.22 C 213.85 521.43 221.04 527.97 221.26 535.96 C 221.65 547.91 221.42 559.89 221.27 571.85 C 217.21 571.84 213.15 571.84 209.09 571.87 C 208.82 562.58 209.11 553.29 208.74 544.01 C 208.48 540.89 208.30 537.38 206.10 534.94 C 202.93 531.80 197.40 532.39 194.25 535.26 C 191.49 537.68 190.45 541.43 190.23 544.99 C 189.63 553.91 189.97 562.87 189.86 571.82 C 185.80 571.84 181.74 571.85 177.68 571.87 C 177.41 549.12 177.46 526.38 177.67 503.63 Z" />
<path fill="#666666" opacity="1.00" d=" M 125.44 531.44 C 133.60 520.93 149.31 518.53 161.05 523.92 C 165.05 525.78 168.19 528.95 171.20 532.09 C 167.89 533.94 164.73 536.41 160.95 537.16 C 157.49 536.05 154.57 533.56 150.92 532.98 C 145.79 532.23 140.05 533.54 136.45 537.46 C 131.65 542.68 131.45 551.48 136.15 556.84 C 139.61 561.02 145.51 562.29 150.69 561.45 C 154.57 560.81 157.79 558.38 160.96 556.22 C 164.20 558.38 167.40 560.60 170.49 562.98 C 166.00 568.21 159.88 572.15 152.92 572.90 C 143.75 574.22 133.32 572.29 126.94 565.08 C 118.37 556.24 117.80 541.02 125.44 531.44 Z" />
<path fill="#666666" opacity="1.00" d=" M 251.82 530.82 C 262.95 517.47 286.46 517.95 296.85 532.02 C 293.66 533.91 290.63 536.43 286.94 537.20 C 281.66 534.87 276.25 531.31 270.18 533.18 C 260.88 534.53 255.83 545.90 260.05 554.01 C 263.32 560.84 272.16 563.18 278.98 560.85 C 281.78 559.84 284.14 557.98 286.52 556.26 C 289.89 558.36 293.17 560.59 296.36 562.97 C 292.65 566.92 288.36 570.64 282.98 572.00 C 273.17 574.67 261.42 573.45 253.82 566.17 C 244.13 557.28 243.22 540.76 251.82 530.82 Z" />
<path fill="#666666" opacity="1.00" d=" M 358.89 528.91 C 369.69 517.04 391.86 519.02 399.98 533.02 C 403.40 538.23 403.74 544.62 403.85 550.66 C 390.47 550.80 377.07 550.35 363.70 550.90 C 365.47 555.79 368.73 560.76 374.21 561.79 C 379.94 563.59 385.13 560.14 390.24 558.20 C 394.01 558.18 397.25 560.79 400.57 562.33 C 397.42 566.32 393.63 570.08 388.66 571.64 C 379.20 574.73 367.73 573.75 360.10 566.90 C 349.46 557.42 349.07 539.10 358.89 528.91 M 372.80 532.80 C 368.88 533.91 366.57 537.50 364.48 540.71 C 373.49 540.94 382.51 540.98 391.53 540.65 C 389.58 537.67 387.54 534.36 384.05 533.03 C 380.47 531.73 376.44 531.75 372.80 532.80 Z" />
<path fill="#666666" opacity="1.00" d=" M 422.27 526.70 C 426.39 523.94 430.88 521.07 436.04 521.20 C 442.43 520.85 449.03 524.40 451.67 530.33 C 453.82 535.26 453.28 540.76 453.34 546.00 C 453.26 554.61 453.39 563.22 453.18 571.84 C 449.07 571.84 444.97 571.84 440.86 571.86 C 440.69 562.58 440.98 553.29 440.64 544.01 C 440.40 540.50 440.02 536.34 436.94 534.09 C 433.23 531.74 427.91 532.79 425.24 536.24 C 422.28 539.75 421.92 544.57 421.76 548.97 C 421.62 556.60 421.77 564.24 421.73 571.87 C 417.59 571.89 413.45 571.86 409.32 571.84 C 409.43 555.48 409.42 539.11 409.32 522.74 C 413.24 522.61 417.16 522.56 421.08 522.49 C 421.47 523.89 421.87 525.29 422.27 526.70 Z" />
<path fill="#666666" opacity="1.00" d=" M 228.75 522.65 C 232.88 522.59 237.00 522.60 241.13 522.66 C 241.10 539.04 241.36 555.43 240.98 571.81 C 236.92 571.84 232.86 571.85 228.80 571.86 C 228.62 555.46 228.71 539.06 228.75 522.65 Z" />
<path fill="#666666" opacity="1.00" d=" M 124.78 597.33 C 129.51 597.30 134.40 596.82 138.91 598.59 C 134.97 599.21 130.99 599.22 127.02 599.20 C 127.04 601.64 127.05 604.10 127.06 606.56 C 129.99 606.76 132.92 607.00 135.83 607.49 C 133.01 608.17 130.12 608.53 127.24 608.79 C 127.14 612.27 126.95 615.75 126.35 619.19 C 125.40 617.61 124.48 615.93 124.54 614.04 C 124.33 608.47 124.59 602.89 124.78 597.33 Z" />
<path fill="#666666" opacity="1.00" d=" M 177.43 597.53 C 180.75 597.39 184.08 597.39 187.41 597.52 C 186.11 598.34 184.80 599.13 183.48 599.92 C 183.29 605.29 183.31 610.67 183.41 616.04 C 184.78 616.73 186.14 617.42 187.50 618.16 C 184.14 618.35 180.77 618.33 177.42 618.10 C 178.74 617.36 180.08 616.67 181.43 615.98 C 181.45 610.65 181.45 605.32 181.36 600.00 C 180.03 599.20 178.73 598.36 177.43 597.53 Z" />
<path fill="#666666" opacity="1.00" d=" M 271.47 595.84 C 272.21 597.45 273.09 599.10 273.06 600.94 C 273.21 607.01 272.92 613.10 273.01 619.18 C 272.50 619.18 271.48 619.18 270.97 619.19 C 271.15 611.40 270.43 603.58 271.47 595.84 Z" />
<path fill="#666666" opacity="1.00" d=" M 304.93 599.05 C 307.28 596.33 311.80 596.27 314.50 598.46 C 315.52 599.82 316.15 601.42 316.88 602.95 C 314.58 601.61 312.61 599.44 309.92 598.93 C 306.86 598.65 305.04 601.76 304.65 604.40 C 303.96 608.57 303.89 613.79 307.38 616.81 C 309.48 617.28 312.09 617.31 313.71 615.66 C 314.74 614.02 315.24 612.15 315.87 610.35 C 313.35 609.71 310.84 609.07 308.38 608.26 C 311.40 607.95 314.44 607.84 317.47 607.73 C 317.53 610.99 317.57 614.26 317.59 617.53 C 314.19 617.73 310.83 618.70 307.42 618.45 C 303.88 617.92 302.33 614.07 302.09 610.92 C 301.75 606.86 302.06 602.21 304.93 599.05 Z" />
<path fill="#666666" opacity="1.00" d=" M 356.59 597.40 C 359.85 597.41 363.11 597.41 366.38 597.49 C 365.09 598.32 363.79 599.13 362.49 599.93 C 362.35 604.53 361.97 609.16 362.42 613.76 C 362.62 615.64 364.21 616.92 365.24 618.40 C 362.45 618.39 359.66 618.42 356.88 618.47 C 361.49 614.65 360.26 608.26 360.12 603.01 C 360.21 600.53 358.03 599.06 356.59 597.40 Z" />
<path fill="#666666" opacity="1.00" d=" M 431.19 597.37 C 435.80 597.25 440.54 596.97 444.96 598.54 C 441.15 599.16 437.28 599.25 433.43 599.36 C 433.45 601.71 433.46 604.06 433.45 606.43 C 436.24 606.71 439.04 607.02 441.82 607.52 C 439.07 608.16 436.28 608.54 433.48 608.85 C 433.48 611.41 433.48 613.98 433.46 616.55 C 437.34 616.62 441.24 616.71 445.08 617.39 C 440.56 618.76 435.80 618.50 431.15 618.30 C 431.08 611.32 431.06 604.34 431.19 597.37 Z" />
<path fill="#666666" opacity="1.00" d=" M 501.96 596.87 C 502.48 596.87 503.51 596.89 504.03 596.89 C 504.05 604.27 504.06 611.65 504.02 619.03 C 503.52 619.03 502.50 619.02 501.99 619.02 C 501.97 611.63 501.99 604.25 501.96 596.87 Z" />
<path fill="#666666" opacity="1.00" d=" M 565.37 597.17 C 569.19 596.06 573.88 598.23 574.68 602.33 C 575.56 606.90 575.84 612.15 573.32 616.27 C 569.76 620.99 560.81 618.90 560.15 612.82 C 559.28 607.44 558.85 599.10 565.37 597.17 M 565.34 599.16 C 563.15 600.24 562.44 602.84 562.15 605.08 C 561.85 608.28 561.78 611.73 563.25 614.70 C 564.74 618.23 571.10 617.98 572.01 614.14 C 573.33 610.02 573.51 605.27 571.68 601.28 C 570.58 598.89 567.61 598.47 565.34 599.16 Z" />
<path fill="#666666" opacity="1.00" d=" M 586.14 619.06 C 587.79 611.27 591.19 603.97 594.48 596.76 C 597.41 604.14 601.20 611.27 602.77 619.11 C 600.89 617.14 599.42 614.85 598.11 612.49 C 595.68 612.46 593.25 612.46 590.83 612.49 C 589.44 614.80 587.96 617.07 586.14 619.06 M 590.83 610.72 C 593.22 610.77 595.62 610.82 598.03 610.87 C 596.83 607.61 595.59 604.37 594.41 601.11 C 593.21 604.31 592.00 607.50 590.83 610.72 Z" />
<path fill="#666666" opacity="1.00" d=" M 618.38 597.28 C 621.94 596.01 625.32 598.08 628.01 600.23 C 624.81 599.86 621.64 598.96 618.41 599.22 C 617.23 600.40 616.44 601.89 615.59 603.31 C 619.35 605.63 623.63 607.15 627.01 610.07 C 629.60 612.42 627.89 617.08 624.70 617.99 C 620.64 619.91 616.14 618.18 613.01 615.35 C 616.23 615.84 619.39 617.11 622.69 616.86 C 625.19 616.40 626.79 613.89 625.70 611.48 C 622.44 608.40 617.54 607.70 614.53 604.33 C 612.69 601.41 615.22 597.69 618.38 597.28 Z" />
<path fill="#666666" opacity="1.00" d=" M 151.29 597.56 C 155.60 597.67 161.81 596.16 164.27 600.82 C 166.05 604.37 162.82 607.42 160.60 609.80 C 162.69 612.68 164.76 615.61 166.23 618.88 C 162.62 616.69 160.23 613.14 157.87 609.74 C 156.67 609.74 155.46 609.75 154.25 609.77 C 153.86 613.05 153.41 616.36 152.17 619.45 C 150.63 612.25 151.43 604.85 151.29 597.56 M 153.59 598.95 C 153.61 602.00 153.60 605.06 153.59 608.12 C 156.01 607.82 158.63 607.95 160.84 606.75 C 162.81 605.33 163.00 602.39 161.58 600.52 C 159.22 599.03 156.26 599.27 153.59 598.95 Z" />
<path fill="#666666" opacity="1.00" d=" M 200.94 597.57 C 205.38 597.34 209.98 596.90 214.22 598.59 C 210.57 599.13 206.88 599.26 203.20 599.30 C 203.20 601.68 203.20 604.07 203.18 606.46 C 205.82 606.74 208.45 607.03 211.07 607.50 C 208.49 608.14 205.86 608.51 203.24 608.86 C 203.22 611.43 203.20 614.01 203.19 616.59 C 207.10 616.62 211.03 616.70 214.89 617.39 C 210.36 618.73 205.60 618.50 200.95 618.34 C 200.92 611.41 200.91 604.49 200.94 597.57 Z" />
<path fill="#666666" opacity="1.00" d=" M 227.01 597.55 C 230.77 597.57 234.86 596.84 238.34 598.62 C 241.54 600.90 241.98 605.32 241.90 608.95 C 241.62 612.16 240.99 616.29 237.64 617.72 C 234.20 618.77 230.54 618.37 227.00 618.37 C 226.95 611.43 226.95 604.49 227.01 597.55 M 229.44 598.92 C 229.42 604.96 229.40 610.99 229.47 617.03 C 232.28 616.53 235.66 616.94 237.94 614.94 C 240.20 611.38 239.87 606.70 238.96 602.75 C 237.90 598.62 232.70 599.43 229.44 598.92 Z" />
<path fill="#666666" opacity="1.00" d=" M 330.03 597.49 C 334.24 597.75 340.30 596.12 342.88 600.45 C 344.98 604.11 341.66 607.39 339.41 609.95 C 341.55 612.78 343.65 615.68 345.13 618.93 C 340.23 616.49 338.77 609.35 332.60 609.36 C 332.51 612.31 332.45 615.26 332.39 618.22 C 331.80 618.22 330.63 618.23 330.04 618.23 C 329.94 611.31 329.94 604.40 330.03 597.49 M 332.47 598.98 C 332.46 602.02 332.45 605.08 332.45 608.13 C 334.91 607.84 337.54 607.92 339.81 606.75 C 341.20 604.93 340.78 602.36 341.17 600.21 C 338.29 599.67 335.39 599.27 332.47 598.98 Z" />
<path fill="#666666" opacity="1.00" d=" M 379.75 601.05 C 379.77 599.43 380.79 598.12 381.57 596.80 C 382.43 603.37 381.86 610.00 382.09 616.61 C 386.04 616.64 390.01 616.69 393.92 617.37 C 389.34 618.80 384.50 618.53 379.77 618.34 C 379.79 612.57 379.40 606.80 379.75 601.05 Z" />
<path fill="#666666" opacity="1.00" d=" M 405.59 597.75 C 406.18 597.75 407.35 597.75 407.93 597.75 C 407.88 604.04 407.89 610.33 408.03 616.63 C 411.95 616.64 415.88 616.69 419.76 617.38 C 415.17 618.75 410.34 618.50 405.62 618.32 C 405.46 611.46 405.48 604.60 405.59 597.75 Z" />
<path fill="#666666" opacity="1.00" d=" M 458.47 597.45 C 462.77 597.69 468.73 596.18 471.38 600.65 C 473.76 605.10 473.75 610.90 471.39 615.35 C 468.65 619.62 462.76 618.08 458.51 618.42 C 458.24 611.43 458.24 604.44 458.47 597.45 M 460.49 598.93 C 460.52 604.95 460.54 610.97 460.51 616.99 C 463.21 616.65 466.06 616.68 468.56 615.50 C 471.42 611.79 471.17 606.41 469.73 602.16 C 468.33 598.50 463.59 599.46 460.49 598.93 Z" />
<path fill="#666666" opacity="1.00" d=" M 533.99 597.50 C 538.19 597.74 544.11 596.17 546.75 600.44 C 548.82 604.11 545.54 607.38 543.30 609.96 C 545.44 612.80 547.53 615.69 549.08 618.91 C 545.30 616.75 542.94 613.02 540.42 609.61 C 539.16 609.53 537.90 609.45 536.64 609.36 C 536.43 612.71 536.71 616.38 534.52 619.20 C 533.47 612.01 534.13 604.73 533.99 597.50 M 536.35 598.91 C 536.33 601.98 536.33 605.05 536.37 608.12 C 538.85 607.83 541.51 607.94 543.77 606.72 C 545.44 605.18 545.18 602.62 544.48 600.70 C 542.20 598.87 539.07 599.24 536.35 598.91 Z" />
<path fill="#666666" opacity="1.00" d=" M 639.02 598.43 C 644.81 596.84 651.00 596.96 656.81 598.42 C 654.24 598.89 651.66 599.20 649.07 599.46 C 648.96 606.05 649.43 612.68 648.52 619.24 C 647.73 617.91 646.80 616.57 646.83 614.98 C 646.59 609.82 646.84 604.66 646.84 599.50 C 644.22 599.21 641.60 598.93 639.02 598.43 Z" />
<path fill="#666666" opacity="1.00" d=" M 668.11 597.61 C 672.71 597.30 677.43 597.07 681.89 598.52 C 678.11 599.17 674.28 599.25 670.47 599.34 C 670.50 601.70 670.52 604.07 670.52 606.44 C 673.29 606.72 676.04 607.05 678.79 607.54 C 676.06 608.18 673.28 608.54 670.51 608.85 C 670.52 611.42 670.52 613.99 670.51 616.57 C 674.37 616.64 678.25 616.71 682.07 617.40 C 677.55 618.78 672.78 618.50 668.13 618.28 C 668.06 611.39 668.05 604.50 668.11 597.61 Z" />
<path fill="#666666" opacity="1.00" d=" M 694.69 597.46 C 698.01 597.49 701.45 597.06 704.68 598.09 C 708.51 599.67 709.29 604.31 709.21 608.00 C 709.20 611.39 708.73 615.65 705.42 617.47 C 702.03 618.85 698.26 618.33 694.70 618.44 C 694.53 611.45 694.53 604.45 694.69 597.46 M 697.12 598.89 C 696.83 604.94 696.83 611.02 697.17 617.07 C 699.80 616.55 702.89 616.83 705.10 615.11 C 707.58 611.51 707.35 606.59 706.19 602.55 C 705.03 598.69 700.22 599.43 697.12 598.89 Z" />
</g>
</svg>
